1,F,S,S,S,S,S,S,S,F,1
F,S,1,1,1,1,1,1,1,S,F
F,1,W,W,W,W,1,S,1,1,F
1,W,W,F,1,F,W,1,S,1,W
W,W,1,1,W,1,S,W,1,1,W
W,1,1,W,S,1,S,W,1,1,W
W,1,1,W,S,1,W,1,1,W,W
W,1,S,1,W,F,1,F,W,W,1
F,1,1,S,1,W,W,W,W,1,F
F,S,1,1,1,1,1,1,1,S,F
1,F,S,S,S,S,S,S,S,F,1