%,%,%,%,%,%,%,%,%,%,%,%,%
%,%,%,1,1,1,%,1,1,1,%,%,%
%,%,1,1,F,1,%,%,1,1,F,1,%
%,1,1,%,1,1,%,1,1,%,%,1,%
%,1,%,F,1,1,1,F,F,1,%,S,%
%,1,S,S,1,1,S,%,%,1,1,S,%
%,1,1,F,%,%,S,%,%,S,1,1,%
%,F,1,F,%,%,1,1,1,S,F,1,%
%,1,1,1,S,S,1,1,1,1,%,1,%
%,%,S,S,1,1,%,%,F,1,%,F,%
%,1,1,%,%,1,1,F,1,S,F,S,%
%,1,1,%,1,1,1,1,%,F,1,1,%
%,%,%,%,%,%,%,%,%,%,%,%,1