S,S,1,1,1,F,F,1,1,1,1,1,1,1,1,1,1,1
S,S,1,1,1,F,F,F,1,1,1,1,1,1,1,1,1,S
1,S,1,1,1,1,1,1,1,1,1,1,1,1,1,1,1,S
1,1,1,1,1,1,1,1,1,1,1,1,1,1,1,1,S,S
1,1,1,1,S,1,1,1,1,1,1,1,1,1,1,1,1,1
F,F,1,1,S,S,1,1,1,1,1,1,1,1,1,1,1,1
W,F,F,1,S,S,1,1,1,1,1,S,S,1,1,1,W,W
W,W,W,W,W,W,W,S,1,F,S,S,S,1,W,W,W,W
W,W,W,W,W,W,S,S,1,1,S,S,W,W,W,W,W,W
W,W,W,W,1,1,F,S,1,1,1,S,1,1,F,F,W,W
1,1,F,1,1,1,1,S,1,1,1,1,1,1,F,F,F,1
F,F,F,1,1,1,1,W,W,1,1,1,1,1,1,1,F,1
F,1,1,1,1,1,1,W,W,W,1,1,1,1,1,1,1,1
1,1,1,1,1,1,1,1,1,1,1,1,S,1,1,1,1,1
1,1,1,1,1,1,1,1,1,1,S,S,S,S,1,1,F,F
1,S,S,1,1,1,1,1,1,1,1,S,S,1,1,1,F,1
S,S,1,1,1,1,F,1,1,1,1,1,1,1,1,1,1,1
S,S,1,1,1,F,F,F,1,1,1,1,1,1,1,1,1,1
